DateTime,Disp,K1:VIS-ETMX_PF_OPLEV_TILT_SEG1_INMON.mean,K1:VIS-ETMX_PF_OPLEV_TILT_SEG1_INMON.std,K1:VIS-ETMX_PF_OPLEV_TILT_SEG2_INMON.mean,K1:VIS-ETMX_PF_OPLEV_TILT_SEG2_INMON.std,K1:VIS-ETMX_PF_OPLEV_TILT_SEG3_INMON.mean,K1:VIS-ETMX_PF_OPLEV_TILT_SEG3_INMON.std,K1:VIS-ETMX_PF_OPLEV_TILT_SEG4_INMON.mean,K1:VIS-ETMX_PF_OPLEV_TILT_SEG4_INMON.std,K1:VIS-ETMX_PF_OPLEV_TILT_VER_INMON.mean,K1:VIS-ETMX_PF_OPLEV_TILT_VER_INMON.std,K1:VIS-ETMX_PF_OPLEV_TILT_HOR_INMON.mean,K1:VIS-ETMX_PF_OPLEV_TILT_HOR_INMON.std,K1:VIS-ETMX_PF_OPLEV_TILT_SUM_INMON.mean,K1:VIS-ETMX_PF_OPLEV_TILT_SUM_INMON.std,K1:VIS-ETMX_PF_OPLEV_TILT_CRS_INMON.mean,K1:VIS-ETMX_PF_OPLEV_TILT_CRS_INMON.std
2021-08-10 11:01:06.335888,6.4,-4287.938,24.455,-136.246,20.320,-131.376,20.231,-4203.238,26.249,-0.010,0.004,0.939,0.009,8758.798,80.383,79.830,31.076
2021-08-10 11:01:23.135771,6.4,-4408.394,24.974,-136.582,20.883,-131.435,20.689,-4290.993,24.428,-0.014,0.003,0.940,0.009,8967.403,82.131,112.254,28.229
2021-08-10 11:01:57.271835,6.5,-4714.728,22.652,-139.456,21.863,-136.257,21.707,-4578.308,22.815,-0.015,0.001,0.942,0.009,9568.748,86.650,133.222,13.632
2021-08-10 11:02:22.932747,6.6,-4899.103,25.010,-144.658,21.988,-144.458,21.750,-4773.041,26.034,-0.013,0.003,0.942,0.008,9961.260,86.632,125.861,27.473
2021-08-10 11:02:43.920242,6.7,-4854.723,26.556,-148.748,26.702,-151.354,26.365,-4786.800,27.129,-0.007,0.001,0.940,0.010,9941.626,104.747,70.529,14.493
2021-08-10 11:03:07.487191,6.8,-4735.620,26.762,-161.521,25.351,-163.679,25.130,-4739.000,26.599,0.001,0.002,0.934,0.010,9799.820,99.677,-1.224,20.719
2021-08-10 11:03:30.151503,6.9,-4636.306,27.258,-193.744,27.819,-188.487,27.596,-4727.528,27.892,0.009,0.001,0.922,0.010,9746.065,108.816,-96.480,13.700
2021-08-10 11:03:51.939664,7.0,-4554.430,24.767,-295.904,24.243,-272.547,24.194,-4707.645,25.058,0.013,0.002,0.884,0.009,9830.525,95.048,-176.572,16.843
2021-08-10 11:04:18.998014,7.1,-4237.480,27.270,-523.452,25.868,-485.418,25.522,-4461.883,27.030,0.019,0.002,0.792,0.008,9708.233,100.926,-262.438,19.996
2021-08-10 11:04:39.796455,7.2,-3677.136,25.541,-952.975,23.719,-927.571,23.537,-3966.536,24.976,0.028,0.003,0.605,0.006,9524.218,91.915,-314.804,16.974
2021-08-10 11:05:01.980021,7.3,-2851.636,17.988,-1618.809,19.156,-1667.782,18.427,-3138.904,19.961,0.036,0.003,0.291,0.003,9277.130,67.275,-238.296,9.073
2021-08-10 11:05:27.902079,7.4,-1962.321,20.838,-2345.738,21.837,-2534.209,22.432,-2194.529,21.443,0.047,0.002,-0.080,0.002,9036.798,82.648,-43.737,2.634
2021-08-10 11:06:06.370915,7.5,-1160.189,19.769,-2947.342,22.301,-3300.994,21.805,-1309.514,18.887,0.058,0.003,-0.433,0.004,8718.039,75.333,204.327,13.440
2021-08-10 11:06:32.768192,7.6,-614.449,22.193,-3425.202,23.122,-3934.641,24.174,-686.520,22.569,0.067,0.002,-0.700,0.007,8660.811,88.928,437.368,13.761
2021-08-10 11:06:57.110715,7.7,-303.530,13.605,-3668.645,16.104,-4313.667,17.089,-326.522,14.045,0.078,0.002,-0.854,0.005,8612.364,55.339,622.030,16.989
2021-08-10 11:07:20.276295,7.8,-188.644,1.118,-3738.670,10.969,-4442.326,10.166,-193.267,1.379,0.083,0.002,-0.911,0.001,8562.909,5.750,699.034,20.366
2021-08-10 11:07:43.355027,7.9,-151.030,27.298,-3915.464,34.407,-4673.200,29.900,-150.431,27.808,0.085,0.002,-0.932,0.012,8890.126,113.295,758.335,17.996
2021-08-10 11:08:10.761052,8.0,-141.966,19.387,-3803.249,22.749,-4635.569,21.296,-139.726,19.866,0.095,0.002,-0.935,0.008,8720.511,79.307,834.561,18.213
2021-08-10 11:08:38.451660,8.1,-140.138,14.294,-3857.036,17.357,-4717.058,17.972,-137.588,14.556,0.097,0.002,-0.937,0.006,8851.819,57.904,862.573,19.759
2021-08-10 11:09:00.043946,8.2,-137.895,5.028,-3934.033,9.404,-4842.927,11.330,-136.375,4.953,0.100,0.002,-0.939,0.002,9051.229,20.375,910.414,17.720
2021-08-10 11:09:19.902286,8.3,-133.882,21.047,-3947.717,23.241,-4920.844,23.356,-133.536,21.673,0.106,0.002,-0.942,0.009,9135.979,86.056,973.473,17.162
2021-08-10 11:09:45.146283,8.4,-133.531,25.892,-4002.880,29.907,-5039.114,29.128,-133.596,25.939,0.111,0.003,-0.943,0.010,9309.121,104.410,1036.169,27.043
