DateTime,Disp,K1:VIS-ETMX_PF_OPLEV_LEN_SEG1_INMON.mean,K1:VIS-ETMX_PF_OPLEV_LEN_SEG1_INMON.std,K1:VIS-ETMX_PF_OPLEV_LEN_SEG2_INMON.mean,K1:VIS-ETMX_PF_OPLEV_LEN_SEG2_INMON.std,K1:VIS-ETMX_PF_OPLEV_LEN_SEG3_INMON.mean,K1:VIS-ETMX_PF_OPLEV_LEN_SEG3_INMON.std,K1:VIS-ETMX_PF_OPLEV_LEN_SEG4_INMON.mean,K1:VIS-ETMX_PF_OPLEV_LEN_SEG4_INMON.std,K1:VIS-ETMX_PF_OPLEV_LEN_VER_INMON.mean,K1:VIS-ETMX_PF_OPLEV_LEN_VER_INMON.std,K1:VIS-ETMX_PF_OPLEV_LEN_HOR_INMON.mean,K1:VIS-ETMX_PF_OPLEV_LEN_HOR_INMON.std,K1:VIS-ETMX_PF_OPLEV_LEN_SUM_INMON.mean,K1:VIS-ETMX_PF_OPLEV_LEN_SUM_INMON.std,K1:VIS-ETMX_PF_OPLEV_LEN_CRS_INMON.mean,K1:VIS-ETMX_PF_OPLEV_LEN_CRS_INMON.std
2021-08-10 11:43:51.339401,6.7,-6134.376,37.713,-189.116,29.196,-173.050,28.137,-6171.380,35.358,-0.002,0.001,-0.943,0.009,12667.923,121.169,-53.070,10.769
2021-08-10 11:44:03.826376,6.7,-6317.541,27.226,-188.557,25.162,-172.507,24.578,-6329.938,24.389,0.000,0.001,-0.945,0.007,13008.542,98.676,-28.448,7.848
2021-08-10 11:44:37.207137,6.8,-6400.024,25.808,-189.534,25.322,-173.679,24.272,-6415.536,24.738,0.000,0.001,-0.945,0.007,13178.772,98.883,-31.368,10.429
2021-08-10 11:45:02.758109,6.9,-6382.712,38.624,-187.792,37.909,-172.349,36.471,-6403.110,35.172,-0.000,0.001,-0.945,0.011,13145.963,146.793,-35.841,14.325
2021-08-10 11:45:28.521249,7.0,-6379.231,41.053,-187.438,40.117,-171.896,38.812,-6394.047,37.069,0.000,0.001,-0.945,0.011,13132.612,155.530,-30.358,15.365
2021-08-10 11:45:53.186252,7.1,-6352.262,30.508,-188.616,27.659,-173.153,26.916,-6368.291,25.083,-0.000,0.001,-0.945,0.008,13082.322,107.408,-31.492,17.818
2021-08-10 11:46:19.462195,7.2,-6358.548,25.021,-190.019,24.035,-174.797,23.418,-6367.650,22.379,0.000,0.001,-0.944,0.007,13091.014,93.628,-24.324,10.001
2021-08-10 11:46:42.762765,7.3,-6316.574,21.878,-196.655,19.352,-181.016,18.887,-6327.008,19.575,0.000,0.001,-0.942,0.006,13021.253,75.609,-26.073,16.594
2021-08-10 11:47:06.698141,7.4,-6228.269,28.368,-239.320,27.278,-215.560,26.366,-6248.272,25.604,0.000,0.001,-0.930,0.008,12931.420,105.364,-43.763,15.302
2021-08-10 11:47:27.267171,7.5,-5855.774,27.402,-551.033,26.265,-543.431,25.417,-5849.823,24.440,0.001,0.001,-0.829,0.007,12800.060,101.524,-1.651,13.064
2021-08-10 11:47:55.235657,7.55,-5275.352,20.900,-955.500,16.855,-1022.516,16.739,-5197.764,21.199,0.001,0.002,-0.682,0.004,12451.133,67.291,144.604,14.498
2021-08-10 11:48:21.517114,7.6,-4536.207,38.099,-1540.046,37.460,-1741.525,36.069,-4335.647,33.682,-0.000,0.001,-0.460,0.006,12153.425,144.007,402.040,7.625
2021-08-10 11:48:48.715376,7.65,-3629.220,37.606,-2401.510,37.961,-2677.332,37.161,-3374.415,34.160,-0.002,0.001,-0.159,0.002,12082.476,146.262,530.627,3.086
2021-08-10 11:49:11.937647,7.7,-2541.371,17.541,-3438.708,17.244,-3669.860,15.961,-2331.493,15.894,-0.002,0.001,0.187,0.002,11981.431,62.537,441.030,2.579
2021-08-10 11:49:35.902681,7.75,-1506.536,42.248,-4486.957,42.660,-4688.438,40.918,-1344.146,37.812,-0.003,0.002,0.526,0.007,12026.078,162.046,363.871,9.861
2021-08-10 11:50:04.395343,7.8,-779.036,37.780,-5253.747,37.925,-5376.109,37.714,-689.404,34.293,-0.003,0.001,0.757,0.009,12098.296,146.815,211.993,9.201
2021-08-10 11:50:29.627833,7.85,-367.345,40.472,-5730.707,45.483,-5807.735,52.635,-330.108,36.499,-0.003,0.002,0.886,0.011,12235.894,167.350,114.265,18.289
2021-08-10 11:50:54.279496,7.9,-249.707,30.133,-5855.052,36.757,-5927.362,46.959,-215.771,26.933,-0.003,0.002,0.924,0.009,12247.893,129.944,106.245,18.835
2021-08-10 11:51:49.662307,8.0,-199.988,30.778,-5924.354,30.674,-5979.308,31.581,-172.440,27.359,-0.002,0.001,0.939,0.009,12276.089,118.281,82.502,13.923
2021-08-10 11:52:17.803872,8.1,-195.541,28.292,-6277.061,29.708,-6395.187,28.145,-168.810,25.098,-0.007,0.001,0.944,0.008,13036.599,109.148,144.857,14.499
2021-08-10 11:52:41.500497,8.2,-193.664,28.640,-6147.974,28.798,-6265.825,27.954,-167.336,25.538,-0.007,0.001,0.944,0.008,12774.799,109.935,144.179,10.614
2021-08-10 11:53:03.511243,8.3,-195.535,29.182,-6141.524,28.896,-6260.918,28.773,-169.100,26.028,-0.007,0.001,0.943,0.008,12767.078,111.789,145.829,10.620
2021-08-10 11:53:27.946964,8.4,-193.087,27.260,-6068.223,27.793,-6194.727,27.145,-166.331,24.336,-0.008,0.001,0.943,0.008,12622.368,104.913,153.260,11.912
2021-08-10 11:53:51.590043,8.5,-192.833,30.336,-6010.691,30.265,-6149.793,30.363,-166.227,26.966,-0.009,0.001,0.943,0.009,12519.543,117.103,165.708,9.604
2021-08-10 11:54:12.556277,8.6,-192.493,29.363,-5916.289,30.571,-6057.797,28.774,-165.560,26.078,-0.009,0.001,0.942,0.008,12332.138,113.375,168.442,11.969
2021-08-10 11:54:40.260516,8.7,-193.379,31.706,-6008.813,32.154,-6157.783,31.122,-166.845,28.087,-0.010,0.001,0.943,0.009,12526.820,122.236,175.504,9.371
