DateTime,Disp,K1:VIS-ETMX_TM_OPLEV_TILT_SEG1_INMON.mean,K1:VIS-ETMX_TM_OPLEV_TILT_SEG1_INMON.std,K1:VIS-ETMX_TM_OPLEV_TILT_SEG2_INMON.mean,K1:VIS-ETMX_TM_OPLEV_TILT_SEG2_INMON.std,K1:VIS-ETMX_TM_OPLEV_TILT_SEG3_INMON.mean,K1:VIS-ETMX_TM_OPLEV_TILT_SEG3_INMON.std,K1:VIS-ETMX_TM_OPLEV_TILT_SEG4_INMON.mean,K1:VIS-ETMX_TM_OPLEV_TILT_SEG4_INMON.std,K1:VIS-ETMX_TM_OPLEV_TILT_VER_INMON.mean,K1:VIS-ETMX_TM_OPLEV_TILT_VER_INMON.std,K1:VIS-ETMX_TM_OPLEV_TILT_HOR_INMON.mean,K1:VIS-ETMX_TM_OPLEV_TILT_HOR_INMON.std,K1:VIS-ETMX_TM_OPLEV_TILT_SUM_INMON.mean,K1:VIS-ETMX_TM_OPLEV_TILT_SUM_INMON.std,K1:VIS-ETMX_TM_OPLEV_TILT_CRS_INMON.mean,K1:VIS-ETMX_TM_OPLEV_TILT_CRS_INMON.std
2021-07-08 11:41:09.339081,1.8,-2700.957,20.443,-2273.772,24.434,-69.996,13.840,-75.755,13.606,-0.943,0.001,0.083,0.003,5121.454,5.555,414.520,14.350
2021-07-08 11:41:20.430041,1.8,-2713.961,12.062,-2259.886,11.432,-69.647,9.856,-75.548,9.748,-0.943,0.001,0.090,0.001,5120.271,3.628,450.858,4.351
2021-07-08 11:41:55.639665,1.9,-2742.833,9.653,-2225.102,14.297,-69.062,6.574,-76.988,6.021,-0.943,0.000,0.103,0.002,5115.192,2.254,509.675,9.734
2021-07-08 11:42:23.106122,2.0,-2719.125,16.550,-2240.810,19.713,-71.354,13.152,-81.540,12.654,-0.940,0.001,0.096,0.003,5112.990,5.278,468.488,12.867
2021-07-08 11:42:47.663025,2.1,-2700.666,21.353,-2245.124,17.449,-78.326,12.990,-92.479,12.720,-0.933,0.001,0.092,0.002,5118.684,4.921,441.725,12.151
2021-07-08 11:43:07.009962,2.2,-2711.540,26.755,-2200.697,19.111,-89.920,12.610,-109.627,12.931,-0.922,0.001,0.104,0.003,5112.040,5.285,491.429,13.775
2021-07-08 11:43:25.948673,2.3,-2677.310,18.977,-2155.567,17.747,-116.443,6.908,-145.501,6.847,-0.897,0.001,0.108,0.002,5095.173,2.327,492.890,11.446
2021-07-08 11:43:46.516074,2.4,-2581.283,14.039,-2109.571,11.108,-177.879,9.008,-218.402,9.119,-0.844,0.001,0.101,0.002,5088.362,5.317,434.010,9.916
2021-07-08 11:44:04.668013,2.5,-2425.299,28.761,-1977.648,27.854,-308.312,16.203,-369.564,11.793,-0.734,0.002,0.101,0.003,5080.086,4.622,390.032,10.709
2021-07-08 11:44:23.954523,2.6,-2199.592,16.659,-1745.472,19.837,-509.702,13.777,-615.724,11.675,-0.556,0.003,0.110,0.002,5070.561,5.237,347.586,5.825
2021-07-08 11:44:40.757110,2.7,-1842.937,11.311,-1451.034,14.593,-805.050,7.241,-969.700,10.597,-0.300,0.003,0.111,0.003,5066.780,1.497,230.047,4.953
2021-07-08 11:44:57.912831,2.8,-1414.825,17.322,-1095.861,13.035,-1146.395,13.425,-1392.242,14.809,0.006,0.003,0.112,0.002,5048.708,4.742,73.731,1.504
2021-07-08 11:45:17.697231,2.9,-997.712,11.874,-754.738,10.135,-1481.895,11.302,-1830.610,12.209,0.308,0.002,0.116,0.002,5066.707,2.492,-105.530,2.292
2021-07-08 11:45:37.261933,3.0,-632.606,15.657,-473.906,13.888,-1760.665,17.436,-2199.255,16.248,0.564,0.002,0.117,0.003,5066.856,5.242,-276.698,7.083
2021-07-08 11:45:57.550407,3.1,-359.839,3.843,-273.509,4.437,-1977.608,12.160,-2477.519,12.515,0.751,0.001,0.115,0.002,5086.941,1.783,-413.329,9.153
2021-07-08 11:46:18.865768,3.2,-194.094,11.622,-154.006,11.485,-2096.384,15.792,-2651.276,15.239,0.863,0.001,0.116,0.002,5094.031,4.673,-511.769,9.254
2021-07-08 11:46:36.207008,3.3,-116.937,6.693,-102.447,6.848,-2151.670,14.216,-2732.988,17.508,0.914,0.001,0.116,0.003,5105.667,2.380,-565.157,11.980
2021-07-08 11:46:58.153820,3.4,-80.811,4.512,-78.310,4.859,-2153.829,18.387,-2792.292,17.145,0.937,0.000,0.126,0.003,5106.673,1.653,-637.549,14.761
2021-07-08 11:47:18.718948,3.5,-68.194,10.339,-69.201,11.034,-2152.828,12.957,-2808.595,15.231,0.945,0.001,0.129,0.002,5102.287,5.101,-660.666,10.427
2021-07-08 11:47:36.627233,3.6,-67.101,13.025,-68.680,13.328,-2138.802,26.462,-2834.110,20.250,0.947,0.001,0.136,0.004,5109.941,5.214,-699.517,18.864
2021-07-08 11:47:56.767233,3.7,-66.157,12.673,-67.489,12.703,-2155.421,15.713,-2819.590,22.775,0.948,0.001,0.130,0.002,5108.615,5.156,-666.685,12.665
2021-07-08 11:48:20.224566,3.8,-64.846,4.937,-65.857,5.433,-2143.169,17.250,-2831.162,15.461,0.949,0.000,0.134,0.003,5106.392,1.857,-685.880,13.372
