DateTime,Disp,K1:IMC-IMMT1_TRANS_QPDA1_DC_SEG1_INMON.mean,K1:IMC-IMMT1_TRANS_QPDA1_DC_SEG1_INMON.std,K1:IMC-IMMT1_TRANS_QPDA1_DC_SEG2_INMON.mean,K1:IMC-IMMT1_TRANS_QPDA1_DC_SEG2_INMON.std,K1:IMC-IMMT1_TRANS_QPDA1_DC_SEG3_INMON.mean,K1:IMC-IMMT1_TRANS_QPDA1_DC_SEG3_INMON.std,K1:IMC-IMMT1_TRANS_QPDA1_DC_SEG4_INMON.mean,K1:IMC-IMMT1_TRANS_QPDA1_DC_SEG4_INMON.std,K1:IMC-IMMT1_TRANS_QPDA1_DC_PIT_INMON.mean,K1:IMC-IMMT1_TRANS_QPDA1_DC_PIT_INMON.std,K1:IMC-IMMT1_TRANS_QPDA1_DC_YAW_INMON.mean,K1:IMC-IMMT1_TRANS_QPDA1_DC_YAW_INMON.std,K1:IMC-IMMT1_TRANS_QPDA1_DC_SUM_INMON.mean,K1:IMC-IMMT1_TRANS_QPDA1_DC_SUM_INMON.std
2021-08-10 14:37:17.341131,11.11,-12002.878,47.903,-11547.838,45.585,-12039.610,43.633,-11422.077,50.015,-0.002,0.000,-0.003,0.002,47027.878,31.785
2021-08-10 14:43:19.980676,11.30,-10718.702,45.597,-10254.981,41.517,-13349.831,50.612,-12730.717,56.061,0.109,0.000,-0.003,0.001,47050.855,54.821
2021-08-10 14:44:07.080909,11.50,-9326.951,59.953,-8876.108,57.133,-14661.687,87.415,-14086.271,95.040,0.225,0.000,-0.003,0.004,46938.430,35.549
2021-08-10 14:44:43.014895,11.7,-8021.552,45.486,-7620.872,52.277,-15957.305,95.361,-15381.649,102.221,0.334,0.000,-0.004,0.004,46997.872,37.905
2021-08-10 14:45:17.556926,11.9,-6806.820,33.158,-6412.748,37.503,-17122.844,82.505,-16671.600,90.117,0.438,0.000,-0.002,0.004,47014.187,31.661
2021-08-10 14:45:45.150423,12.10,-5645.818,19.369,-5313.597,18.825,-18258.959,46.970,-17799.541,57.422,0.534,0.000,-0.003,0.002,47008.386,39.171

2021-08-10 14:46:50.700312,12.30,-4608.455,16.168,-4318.898,19.292,-19197.698,72.369,-18759.502,62.421,0.619,0.000,-0.003,0.003,46875.123,33.543
2021-08-10 14:47:16.627604,12.50,-3692.173,17.563,-3451.238,14.318,-20063.815,72.580,-19645.227,95.678,0.695,0.000,-0.003,0.004,46856.821,50.307
2021-08-10 14:47:47.327736,12.70,-2927.128,12.174,-2708.273,14.853,-20668.324,105.021,-20419.416,83.058,0.759,0.000,-0.000,0.003,46725.565,55.565
2021-08-10 14:48:33.809407,12.90,-2270.114,7.297,-2091.447,8.481,-21262.604,69.452,-21062.402,58.162,0.813,0.000,-0.000,0.003,46674.280,25.615
2021-08-10 14:49:13.947481,13.10,-1733.743,7.606,-1582.740,6.866,-21591.870,71.859,-21538.563,81.550,0.857,0.000,0.002,0.003,46445.762,35.724
2021-08-10 14:49:40.315750,13.30,-1304.305,4.418,-1180.009,5.767,-21856.996,74.557,-21873.236,59.386,0.892,0.000,0.003,0.002,46212.807,38.294
2021-08-10 14:50:22.428899,13.50,-966.751,3.494,-868.098,4.180,-22024.721,85.333,-21988.445,87.372,0.920,0.000,0.001,0.003,45842.665,32.961
2021-08-10 14:50:51.352552,13.70,-709.400,3.073,-624.452,3.215,-22050.799,47.096,-22067.969,56.868,0.941,0.000,0.002,0.002,45454.761,47.769
2021-08-10 14:51:20.726352,13.90,-515.401,3.074,-446.134,2.514,-21979.742,63.907,-22022.941,73.186,0.957,0.000,0.003,0.003,44971.648,23.820
2021-08-10 14:51:48.458103,14.10,-368.579,2.035,-313.170,2.018,-21627.033,103.148,-21807.803,106.758,0.969,0.000,0.006,0.004,44111.034,32.582
2021-08-10 14:52:15.223340,14.30,-260.549,1.213,-219.621,1.143,-21279.746,69.207,-21523.541,85.419,0.978,0.000,0.007,0.003,43282.864,37.538
2021-08-10 14:55:24.461090,10.90,-13523.916,93.593,-13079.747,97.411,-10499.919,76.131,-9919.602,76.707,-0.132,0.000,-0.003,0.006,47038.033,25.583
2021-08-10 14:55:51.683939,10.70,-14838.114,45.035,-14506.545,48.143,-9174.408,31.469,-8604.956,32.668,-0.245,0.000,-0.005,0.002,47119.514,32.486
2021-08-10 14:56:20.656682,10.50,-16110.395,53.262,-15843.245,53.658,-7864.006,27.459,-7355.255,31.482,-0.355,0.000,-0.005,0.003,47151.486,25.396
2021-08-10 14:56:47.024177,10.30,-17226.195,49.796,-17026.976,50.857,-6594.728,21.580,-6151.169,22.156,-0.458,0.000,-0.005,0.003,46998.395,19.868
2021-08-10 14:57:12.873684,10.10,-18270.154,81.512,-18185.936,94.363,-5483.000,28.765,-5079.850,28.836,-0.551,0.000,-0.006,0.004,47016.815,40.391
2021-08-10 14:57:38.064086,9.90,-19156.857,57.501,-19085.418,68.436,-4436.106,16.635,-4096.975,19.100,-0.635,0.000,-0.006,0.003,46789.459,21.173
2021-08-10 14:58:06.833908,9.70,-20006.679,99.821,-19924.798,106.126,-3570.320,20.193,-3287.452,19.663,-0.707,0.000,-0.005,0.004,46788.867,32.981
2021-08-10 14:58:30.438429,9.50,-20620.776,116.220,-20634.951,93.677,-2810.803,12.637,-2565.758,17.821,-0.769,0.000,-0.006,0.004,46635.539,53.499
2021-08-10 14:58:59.377661,9.30,-21074.019,71.732,-21217.179,89.429,-2172.564,9.488,-1961.556,9.891,-0.822,0.000,-0.008,0.003,46428.238,38.570
2021-08-10 14:59:23.912334,9.10,-21474.664,47.874,-21700.918,53.554,-1651.322,6.192,-1476.206,5.486,-0.865,0.000,-0.008,0.002,46302.329,22.767
2021-08-10 14:59:48.599163,8.90,-21729.381,52.247,-21974.559,66.993,-1229.317,4.377,-1087.731,4.486,-0.899,0.000,-0.008,0.001,46001.774,40.271
2021-08-10 15:00:27.065006,8.70,-21743.249,76.929,-22137.306,82.512,-900.660,4.690,-781.531,4.626,-0.926,0.000,-0.011,0.003,45562.922,31.835
2021-08-10 15:00:50.451747,8.50,-21847.936,63.670,-22214.798,74.443,-651.995,3.637,-561.030,3.603,-0.946,0.000,-0.010,0.002,45278.291,20.111
2021-08-10 15:01:20.190832,8.30,-21522.168,101.795,-21931.998,102.082,-456.845,2.813,-389.804,2.855,-0.962,0.000,-0.011,0.002,44327.312,32.123
2021-08-10 15:01:46.973134,8.10,-21316.968,102.107,-21838.137,79.559,-320.808,1.503,-275.270,2.003,-0.973,0.000,-0.013,0.003,43733.181,34.142
2021-08-10 15:02:25.604275,7.90,-20920.529,65.873,-21417.819,69.979,-217.911,0.987,-190.889,0.994,-0.981,0.000,-0.012,0.001,42727.652,25.175
