DateTime,Disp,K1:IMC-IMMT1_TRANS_QPDA2_DC_SEG1_INMON.mean,K1:IMC-IMMT1_TRANS_QPDA2_DC_SEG1_INMON.std,K1:IMC-IMMT1_TRANS_QPDA2_DC_SEG2_INMON.mean,K1:IMC-IMMT1_TRANS_QPDA2_DC_SEG2_INMON.std,K1:IMC-IMMT1_TRANS_QPDA2_DC_SEG3_INMON.mean,K1:IMC-IMMT1_TRANS_QPDA2_DC_SEG3_INMON.std,K1:IMC-IMMT1_TRANS_QPDA2_DC_SEG4_INMON.mean,K1:IMC-IMMT1_TRANS_QPDA2_DC_SEG4_INMON.std,K1:IMC-IMMT1_TRANS_QPDA2_DC_PIT_INMON.mean,K1:IMC-IMMT1_TRANS_QPDA2_DC_PIT_INMON.std,K1:IMC-IMMT1_TRANS_QPDA2_DC_YAW_INMON.mean,K1:IMC-IMMT1_TRANS_QPDA2_DC_YAW_INMON.std,K1:IMC-IMMT1_TRANS_QPDA2_DC_SUM_INMON.mean,K1:IMC-IMMT1_TRANS_QPDA2_DC_SUM_INMON.std
2021-12-07 11:16:55.334019,5.45,-5571.443,499.156,-5738.063,516.725,-5572.465,507.728,-5791.969,510.299,0.002,0.000,0.002,0.002,22765.480,530.582
2021-12-07 11:18:29.342725,6.00,-3723.134,219.854,-7851.310,465.251,-7523.943,448.242,-3983.028,232.290,-0.003,0.000,-0.332,0.001,23033.616,467.485
2021-12-07 11:19:34.230249,6.50,-2347.737,156.425,-9204.413,625.221,-8840.428,607.645,-2520.446,168.684,-0.008,0.000,-0.575,0.001,22942.882,465.267
2021-12-07 11:22:25.704179,7.0,-1381.559,91.746,-10232.857,689.470,-9840.786,668.071,-1480.828,100.641,-0.013,0.000,-0.750,0.001,23010.861,454.895
2021-12-07 11:25:50.594367,7.5,-735.966,46.903,-10740.398,707.399,-10306.342,674.281,-802.924,52.473,-0.016,0.000,-0.864,0.000,22625.539,479.438
2021-12-07 11:26:46.150232,8.0,-372.007,25.588,-11021.221,805.669,-10502.943,764.302,-414.874,29.971,-0.021,0.000,-0.930,0.000,22345.550,470.216
2021-12-07 11:27:56.916127,8.5,-180.637,11.199,-10820.979,745.423,-10201.015,700.214,-212.761,14.006,-0.027,0.000,-0.963,0.000,21353.306,552.971
2021-12-07 11:29:30.144551,5.0,-7309.889,427.181,-4127.538,240.615,-4135.326,246.400,-7434.000,429.114,0.006,0.000,0.282,0.001,23018.717,417.069
2021-12-07 11:30:54.791254,4.5,-8787.945,494.226,-2553.398,140.025,-2662.838,149.449,-8916.316,486.613,0.010,0.000,0.545,0.001,23012.664,473.686
2021-12-07 11:31:54.133947,4.0,-9908.836,562.468,-1497.442,82.340,-1604.913,93.213,-10183.511,565.316,0.016,0.000,0.733,0.001,23082.796,460.031
2021-12-07 11:33:11.321328,3.5,-10286.527,669.155,-799.917,50.062,-861.895,57.643,-10705.993,684.276,0.021,0.000,0.853,0.000,22705.759,523.375
2021-12-07 11:34:08.119044,3.0,-10483.310,663.089,-407.564,23.588,-424.972,27.265,-11031.748,695.357,0.025,0.000,0.926,0.000,22361.896,382.958
2021-12-07 11:35:09.073232,2.5,-10259.804,693.075,-190.454,11.984,-193.485,13.379,-10872.428,726.360,0.029,0.000,0.964,0.000,21522.453,529.867
