DateTime,Disp,K1:IMC-MCE_TRANS_QPDA1_DC_SEG1_INMON.mean,K1:IMC-MCE_TRANS_QPDA1_DC_SEG1_INMON.std,K1:IMC-MCE_TRANS_QPDA1_DC_SEG2_INMON.mean,K1:IMC-MCE_TRANS_QPDA1_DC_SEG2_INMON.std,K1:IMC-MCE_TRANS_QPDA1_DC_SEG3_INMON.mean,K1:IMC-MCE_TRANS_QPDA1_DC_SEG3_INMON.std,K1:IMC-MCE_TRANS_QPDA1_DC_SEG4_INMON.mean,K1:IMC-MCE_TRANS_QPDA1_DC_SEG4_INMON.std,K1:IMC-MCE_TRANS_QPDA1_DC_PIT_INMON.mean,K1:IMC-MCE_TRANS_QPDA1_DC_PIT_INMON.std,K1:IMC-MCE_TRANS_QPDA1_DC_YAW_INMON.mean,K1:IMC-MCE_TRANS_QPDA1_DC_YAW_INMON.std,K1:IMC-MCE_TRANS_QPDA1_DC_SUM_INMON.mean,K1:IMC-MCE_TRANS_QPDA1_DC_SUM_INMON.std
2021-08-05 10:58:10.468647,,-7548.764,4.459,-6465.026,3.873,-6806.417,3.988,-7730.632,4.437,0.019,0.000,0.071,0.000,28350.798,12.291
2021-08-05 10:58:46.884337,34,-7568.996,4.983,-6480.006,3.709,-6824.482,3.794,-7753.486,4.358,0.019,0.000,0.071,0.000,28426.930,11.874
