DateTime,Disp,K1:IMC-MCE_TRANS_QPDA1_DC_SEG1_INMON.mean,K1:IMC-MCE_TRANS_QPDA1_DC_SEG1_INMON.std,K1:IMC-MCE_TRANS_QPDA1_DC_SEG2_INMON.mean,K1:IMC-MCE_TRANS_QPDA1_DC_SEG2_INMON.std,K1:IMC-MCE_TRANS_QPDA1_DC_SEG3_INMON.mean,K1:IMC-MCE_TRANS_QPDA1_DC_SEG3_INMON.std,K1:IMC-MCE_TRANS_QPDA1_DC_SEG4_INMON.mean,K1:IMC-MCE_TRANS_QPDA1_DC_SEG4_INMON.std,K1:IMC-MCE_TRANS_QPDA1_DC_PIT_INMON.mean,K1:IMC-MCE_TRANS_QPDA1_DC_PIT_INMON.std,K1:IMC-MCE_TRANS_QPDA1_DC_YAW_INMON.mean,K1:IMC-MCE_TRANS_QPDA1_DC_YAW_INMON.std,K1:IMC-MCE_TRANS_QPDA1_DC_SUM_INMON.mean,K1:IMC-MCE_TRANS_QPDA1_DC_SUM_INMON.std
2021-08-05 16:18:08.340780,3.85,-7191.894,6.354,-7021.120,4.733,-7202.873,5.820,-7214.623,4.581,0.007,0.000,0.007,0.000,28430.470,14.116
2021-08-05 16:19:38.309637,4.0,-2956.774,6.217,-11357.025,14.407,-11443.478,11.131,-3146.179,5.277,0.010,0.001,-0.582,0.001,28703.416,21.534
2021-08-05 16:21:01.521433,4.2,-856.379,1.030,-13624.804,15.999,-13981.062,14.143,-970.753,1.051,0.016,0.001,-0.882,0.000,29232.958,24.315
2021-08-05 16:21:52.416079,4.4,-353.278,0.536,-14209.224,10.167,-14835.396,11.089,-376.943,0.673,0.022,0.001,-0.957,0.000,29574.801,15.628
2021-08-05 16:22:53.920738,4.6,-184.886,0.615,-14271.746,11.302,-15101.004,15.757,-189.361,0.655,0.028,0.000,-0.981,0.000,29546.957,23.251
2021-08-05 16:23:55.049941,4.8,-113.220,0.464,-14346.312,9.711,-15360.087,8.910,-113.487,0.549,0.034,0.000,-0.991,0.000,29733.067,14.156
2021-08-05 16:24:53.119026,5.0,-79.188,0.651,-14294.841,8.420,-15356.729,9.432,-76.751,0.677,0.036,0.000,-0.996,0.000,29607.469,16.342
2021-08-05 16:26:34.863512,3.8,-9372.582,9.728,-4975.336,4.228,-5059.236,5.863,-9321.747,7.389,0.001,0.000,0.304,0.001,28528.860,19.940
2021-08-05 16:27:33.786524,3.6,-13798.853,13.475,-1042.274,1.621,-1043.552,1.786,-13727.088,14.473,-0.002,0.000,0.865,0.000,29411.728,27.265
2021-08-05 16:28:29.545741,3.4,-14547.450,16.624,-393.689,0.890,-389.391,0.849,-14435.218,13.303,-0.004,0.001,0.954,0.000,29565.707,12.094
2021-08-05 16:29:24.785872,3.2,-14883.141,9.552,-199.198,0.493,-194.929,0.556,-14581.742,11.063,-0.010,0.000,0.980,0.000,29658.970,18.774
2021-08-05 16:30:21.280583,3.0,-15094.296,12.270,-115.176,0.545,-110.712,0.401,-14580.314,14.643,-0.017,0.000,0.992,0.000,29700.457,23.897
2021-08-05 16:31:43.861200,2.8,-15215.575,10.589,-74.127,0.520,-70.909,0.515,-14471.683,19.200,-0.025,0.001,0.997,0.000,29632.254,16.670
2021-08-05 16:32:36.009350,2.6,-15312.561,9.984,-52.052,0.560,-49.119,0.550,-14458.599,10.373,-0.029,0.000,1.000,0.000,29672.291,16.782
2021-08-05 16:34:21.292276,3.5,-14349.434,8.990,-605.301,0.694,-600.562,0.753,-14245.486,10.868,-0.004,0.000,0.925,0.000,29600.743,16.780
2021-08-05 16:35:14.251597,3.7,-12550.067,6.804,-2152.049,1.827,-2160.865,2.271,-12474.679,9.396,-0.002,0.000,0.711,0.000,29137.620,16.284
2021-08-05 16:36:05.552381,3.9,-5548.645,4.297,-8702.125,6.443,-8754.626,7.426,-5575.144,3.881,0.003,0.000,-0.223,0.000,28380.500,19.350
2021-08-05 16:37:02.798885,4.1,-1558.175,2.122,-12856.899,10.898,-12915.158,13.676,-1730.562,2.432,0.008,0.000,-0.779,0.000,28860.754,25.989
2021-08-05 16:38:50.724445,3.95,-4116.778,7.837,-10246.980,11.111,-10262.949,11.398,-4237.775,6.858,0.005,0.001,-0.424,0.001,28664.442,13.400
2021-08-05 16:40:48.548982,3.75,-11187.617,11.919,-3324.145,8.385,-3338.644,10.783,-11074.379,19.181,-0.003,0.001,0.543,0.001,28724.744,21.963
