DateTime,Disp,K1:VIS-SR3_TM_OPLEV_LEN_SEG1_INMON.mean,K1:VIS-SR3_TM_OPLEV_LEN_SEG1_INMON.std,K1:VIS-SR3_TM_OPLEV_LEN_SEG2_INMON.mean,K1:VIS-SR3_TM_OPLEV_LEN_SEG2_INMON.std,K1:VIS-SR3_TM_OPLEV_LEN_SEG3_INMON.mean,K1:VIS-SR3_TM_OPLEV_LEN_SEG3_INMON.std,K1:VIS-SR3_TM_OPLEV_LEN_SEG4_INMON.mean,K1:VIS-SR3_TM_OPLEV_LEN_SEG4_INMON.std,K1:VIS-SR3_TM_OPLEV_LEN_VER_INMON.mean,K1:VIS-SR3_TM_OPLEV_LEN_VER_INMON.std,K1:VIS-SR3_TM_OPLEV_LEN_HOR_INMON.mean,K1:VIS-SR3_TM_OPLEV_LEN_HOR_INMON.std,K1:VIS-SR3_TM_OPLEV_LEN_SUM_INMON.mean,K1:VIS-SR3_TM_OPLEV_LEN_SUM_INMON.std,K1:VIS-SR3_TM_OPLEV_LEN_CRS_INMON.mean,K1:VIS-SR3_TM_OPLEV_LEN_CRS_INMON.std
2021-08-11 15:13:37.336923,8.62,-874.646,3.065,-956.144,4.099,-1121.042,3.541,-1150.164,4.961,-0.107,0.002,-0.013,0.002,4101.955,1.011,0.000,0.000
2021-08-11 15:14:45.091350,8.60,-1047.919,8.188,-1122.839,6.413,-945.099,8.013,-983.486,6.293,0.059,0.003,-0.009,0.002,4099.373,0.825,0.000,0.000
2021-08-11 15:16:03.779057,8.58,-1227.202,11.999,-1303.676,14.652,-768.279,8.605,-801.832,11.199,0.235,0.003,-0.010,0.003,4101.476,0.868,0.000,0.000
2021-08-11 15:17:29.418482,8.56,-1390.808,8.649,-1461.670,11.120,-613.029,5.275,-642.278,7.122,0.389,0.002,-0.010,0.003,4108.262,0.888,0.000,0.000
2021-08-11 15:18:37.195620,8.54,-1544.451,4.729,-1606.720,5.758,-472.390,2.927,-495.887,3.714,0.530,0.001,-0.010,0.001,4118.971,0.795,0.000,0.000
2021-08-11 15:19:51.455388,8.52,-1684.131,5.039,-1739.245,5.300,-347.226,1.953,-363.721,2.070,0.656,0.001,-0.009,0.001,4133.866,0.913,0.000,0.000
2021-08-11 15:21:01.433312,8.50,-1799.142,9.619,-1849.416,10.521,-245.627,2.238,-256.235,2.927,0.758,0.001,-0.010,0.002,4150.640,0.827,0.000,0.000
2021-08-11 15:22:14.381486,8.48,-1894.444,8.329,-1946.026,7.862,-164.536,1.604,-168.712,1.613,0.840,0.001,-0.011,0.002,4173.085,1.159,0.000,0.000
2021-08-11 15:23:22.504218,8.46,-1962.300,6.410,-1997.355,5.598,-110.496,0.651,-111.679,0.800,0.894,0.000,-0.008,0.001,4182.434,0.826,0.000,0.000
2021-08-11 15:26:09.689182,8.51,-1744.542,8.014,-1801.291,7.799,-292.447,3.506,-305.681,3.576,0.711,0.001,-0.011,0.002,4144.201,0.951,0.000,0.000
2021-08-11 15:27:43.050616,8.53,-1621.601,6.202,-1677.596,7.902,-404.415,2.530,-424.727,3.844,0.598,0.002,-0.009,0.001,4128.464,0.954,0.000,0.000
2021-08-11 15:29:03.776824,8.55,-1462.086,4.349,-1526.280,4.595,-549.674,2.527,-577.909,2.912,0.452,0.001,-0.009,0.001,4115.767,0.896,0.000,0.000
2021-08-11 15:31:06.378617,8.64,-680.559,4.066,-749.092,4.126,-1319.974,5.201,-1355.801,5.168,-0.304,0.001,-0.008,0.001,4105.624,0.733,0.000,0.000
2021-08-11 15:32:02.409148,8.66,-537.759,3.453,-598.265,3.494,-1473.893,7.012,-1504.358,7.210,-0.448,0.001,-0.007,0.003,4114.911,0.743,0.000,0.000
2021-08-11 15:33:09.720760,8.68,-394.528,2.474,-445.148,3.964,-1640.204,8.435,-1648.346,10.438,-0.593,0.001,-0.010,0.002,4128.449,0.905,0.000,0.000
2021-08-11 15:34:12.440654,8.69,-334.980,2.354,-376.086,2.911,-1707.708,6.711,-1716.415,6.783,-0.656,0.001,-0.008,0.001,4135.520,0.984,0.000,0.000
2021-08-11 15:35:15.076767,8.70,-276.561,2.110,-309.091,1.905,-1779.548,7.535,-1779.319,6.584,-0.717,0.001,-0.008,0.002,4144.601,0.945,0.000,0.000
2021-08-11 15:36:09.659562,8.71,-231.322,1.700,-256.451,1.902,-1835.138,5.796,-1830.155,4.814,-0.765,0.001,-0.007,0.001,4153.413,1.089,0.000,0.000
2021-08-11 15:37:21.679166,8.72,-190.686,1.738,-208.626,1.614,-1893.951,5.912,-1874.272,5.279,-0.808,0.001,-0.009,0.001,4167.194,0.690,0.000,0.000
2021-08-11 15:38:41.148268,8.74,-130.456,1.381,-133.947,1.761,-1976.619,13.281,-1940.188,13.777,-0.874,0.000,-0.009,0.002,4181.411,0.928,0.000,0.000
2021-08-11 15:40:04.593112,8.76,-91.195,0.624,-83.454,0.950,-2037.349,8.062,-1984.294,9.203,-0.917,0.000,-0.011,0.002,4196.701,0.861,0.000,0.000
